{
  "capabilities": {
    "host": {
      "uuid": "5155aca9-aff6-d146-a940-9d110b2ff4cd",
      "cpu": {
        "arch": "x86_64",
        "model": "Haswell-noTSX",
        "vendor": "Intel",
        "microcode": {
          "attr": {
            "@_version": "26"
          }
        },
        "topology": {
          "attr": {
            "@_sockets": "1",
            "@_cores": "4",
            "@_threads": "1"
          }
        },
        "feature": [
          {
            "attr": {
              "@_name": "vme"
            }
          },
          {
            "attr": {
              "@_name": "ss"
            }
          },
          {
            "attr": {
              "@_name": "ht"
            }
          },
          {
            "attr": {
              "@_name": "vmx"
            }
          },
          {
            "attr": {
              "@_name": "osxsave"
            }
          },
          {
            "attr": {
              "@_name": "f16c"
            }
          },
          {
            "attr": {
              "@_name": "rdrand"
            }
          },
          {
            "attr": {
              "@_name": "hypervisor"
            }
          },
          {
            "attr": {
              "@_name": "arat"
            }
          },
          {
            "attr": {
              "@_name": "tsc_adjust"
            }
          },
          {
            "attr": {
              "@_name": "xsaveopt"
            }
          },
          {
            "attr": {
              "@_name": "abm"
            }
          },
          {
            "attr": {
              "@_name": "invtsc"
            }
          }
        ],
        "pages": [
          {
            "attr": {
              "@_unit": "KiB",
              "@_size": "4"
            }
          },
          {
            "attr": {
              "@_unit": "KiB",
              "@_size": "2048"
            }
          }
        ]
      },
      "power_management": {
        "suspend_mem": {
          "attr": {
            "@_/": true
          }
        }
      },
      "migration_features": {
        "live": {
          "attr": {
            "@_/": true
          }
        },
        "uri_transports": {
          "uri_transport": [
            "tcp",
            "rdma"
          ]
        }
      },
      "topology": {
        "cells": {
          "attr": {
            "@_num": "1"
          },
          "cell": {
            "attr": {
              "@_id": "0"
            },
            "memory": {
              "#text": 4034012,
              "attr": {
                "@_unit": "KiB"
              }
            },
            "pages": [
              {
                "#text": 1008503,
                "attr": {
                  "@_unit": "KiB",
                  "@_size": "4"
                }
              },
              {
                "#text": 0,
                "attr": {
                  "@_unit": "KiB",
                  "@_size": "2048"
                }
              }
            ],
            "distances": {
              "sibling": {
                "attr": {
                  "@_id": "0",
                  "@_value": "10"
                }
              }
            },
            "cpus": {
              "attr": {
                "@_num": "4"
              },
              "cpu": [
                {
                  "attr": {
                    "@_id": "0",
                    "@_socket_id": "0",
                    "@_core_id": "0",
                    "@_siblings": "0"
                  }
                },
                {
                  "attr": {
                    "@_id": "1",
                    "@_socket_id": "0",
                    "@_core_id": "1",
                    "@_siblings": "1"
                  }
                },
                {
                  "attr": {
                    "@_id": "2",
                    "@_socket_id": "0",
                    "@_core_id": "2",
                    "@_siblings": "2"
                  }
                },
                {
                  "attr": {
                    "@_id": "3",
                    "@_socket_id": "0",
                    "@_core_id": "3",
                    "@_siblings": "3"
                  }
                }
              ]
            }
          }
        }
      },
      "cache": {
        "bank": [
          {
            "attr": {
              "@_id": "0",
              "@_level": "3",
              "@_type": "both",
              "@_size": "6",
              "@_unit": "MiB",
              "@_cpus": "0"
            }
          },
          {
            "attr": {
              "@_id": "1",
              "@_level": "3",
              "@_type": "both",
              "@_size": "6",
              "@_unit": "MiB",
              "@_cpus": "1"
            }
          },
          {
            "attr": {
              "@_id": "2",
              "@_level": "3",
              "@_type": "both",
              "@_size": "6",
              "@_unit": "MiB",
              "@_cpus": "2"
            }
          },
          {
            "attr": {
              "@_id": "3",
              "@_level": "3",
              "@_type": "both",
              "@_size": "6",
              "@_unit": "MiB",
              "@_cpus": "3"
            }
          },
          {
            "attr": {
              "@_id": "0",
              "@_level": "4",
              "@_type": "both",
              "@_size": "128",
              "@_unit": "MiB",
              "@_cpus": "0-3"
            }
          }
        ]
      },
      "secmodel": [
        {
          "model": "apparmor",
          "doi": 0
        },
        {
          "model": "dac",
          "doi": 0,
          "baselabel": [
            {
              "#text": "+64055:+115",
              "attr": {
                "@_type": "kvm"
              }
            },
            {
              "#text": "+64055:+115",
              "attr": {
                "@_type": "qemu"
              }
            }
          ]
        }
      ]
    },
    "guest": [
      {
        "os_type": "hvm",
        "arch": {
          "attr": {
            "@_name": "i686"
          },
          "wordsize": 32,
          "emulator": "/usr/bin/qemu-system-i386",
          "machine": [
            {
              "#text": "pc-i440fx-bionic",
              "attr": {
                "@_maxCpus": "255"
              }
            },
            {
              "#text": "ubuntu",
              "attr": {
                "@_canonical": "pc-i440fx-bionic",
                "@_maxCpus": "255"
              }
            },
            {
              "#text": "isapc",
              "attr": {
                "@_maxCpus": "1"
              }
            },
            {
              "#text": "pc-1.1",
              "attr": {
                "@_maxCpus": "255"
              }
            },
            {
              "#text": "pc-1.2",
              "attr": {
                "@_maxCpus": "255"
              }
            },
            {
              "#text": "pc-1.3",
              "attr": {
                "@_maxCpus": "255"
              }
            },
            {
              "#text": "pc-i440fx-zesty",
              "attr": {
                "@_maxCpus": "255"
              }
            },
            {
              "#text": "pc-i440fx-2.8",
              "attr": {
                "@_maxCpus": "255"
              }
            },
            {
              "#text": "pc-1.0",
              "attr": {
                "@_maxCpus": "255"
              }
            },
            {
              "#text": "pc-i440fx-2.9",
              "attr": {
                "@_maxCpus": "255"
              }
            },
            {
              "#text": "pc-i440fx-2.6",
              "attr": {
                "@_maxCpus": "255"
              }
            },
            {
              "#text": "pc-i440fx-2.7",
              "attr": {
                "@_maxCpus": "255"
              }
            },
            {
              "#text": "xenfv",
              "attr": {
                "@_maxCpus": "128"
              }
            },
            {
              "#text": "pc-i440fx-wily",
              "attr": {
                "@_maxCpus": "255"
              }
            },
            {
              "#text": "pc-i440fx-2.3",
              "attr": {
                "@_maxCpus": "255"
              }
            },
            {
              "#text": "pc-i440fx-2.4",
              "attr": {
                "@_maxCpus": "255"
              }
            },
            {
              "#text": "pc-i440fx-2.5",
              "attr": {
                "@_maxCpus": "255"
              }
            },
            {
              "#text": "pc-i440fx-yakkety",
              "attr": {
                "@_maxCpus": "255"
              }
            },
            {
              "#text": "pc-i440fx-2.1",
              "attr": {
                "@_maxCpus": "255"
              }
            },
            {
              "#text": "pc-i440fx-2.2",
              "attr": {
                "@_maxCpus": "255"
              }
            },
            {
              "#text": "pc-i440fx-2.0",
              "attr": {
                "@_maxCpus": "255"
              }
            },
            {
              "#text": "pc-q35-yakkety",
              "attr": {
                "@_maxCpus": "255"
              }
            },
            {
              "#text": "pc-i440fx-bionic-hpb",
              "attr": {
                "@_maxCpus": "255"
              }
            },
            {
              "#text": "pc-q35-2.11",
              "attr": {
                "@_maxCpus": "288"
              }
            },
            {
              "#text": "q35",
              "attr": {
                "@_canonical": "pc-q35-2.11",
                "@_maxCpus": "288"
              }
            },
            {
              "#text": "pc-i440fx-xenial",
              "attr": {
                "@_maxCpus": "255"
              }
            },
            {
              "#text": "xenpv",
              "attr": {
                "@_maxCpus": "1"
              }
            },
            {
              "#text": "pc-q35-2.10",
              "attr": {
                "@_maxCpus": "288"
              }
            },
            {
              "#text": "pc-q35-bionic-hpb",
              "attr": {
                "@_maxCpus": "288"
              }
            },
            {
              "#text": "pc-q35-xenial",
              "attr": {
                "@_maxCpus": "255"
              }
            },
            {
              "#text": "pc-i440fx-artful",
              "attr": {
                "@_maxCpus": "255"
              }
            },
            {
              "#text": "pc-i440fx-1.7",
              "attr": {
                "@_maxCpus": "255"
              }
            },
            {
              "#text": "pc-q35-2.9",
              "attr": {
                "@_maxCpus": "288"
              }
            },
            {
              "#text": "pc-0.15",
              "attr": {
                "@_maxCpus": "255"
              }
            },
            {
              "#text": "pc-i440fx-1.5",
              "attr": {
                "@_maxCpus": "255"
              }
            },
            {
              "#text": "pc-q35-2.7",
              "attr": {
                "@_maxCpus": "255"
              }
            },
            {
              "#text": "pc-i440fx-1.6",
              "attr": {
                "@_maxCpus": "255"
              }
            },
            {
              "#text": "pc-i440fx-2.11",
              "attr": {
                "@_maxCpus": "255"
              }
            },
            {
              "#text": "pc",
              "attr": {
                "@_canonical": "pc-i440fx-2.11",
                "@_maxCpus": "255"
              }
            },
            {
              "#text": "pc-q35-2.8",
              "attr": {
                "@_maxCpus": "288"
              }
            },
            {
              "#text": "pc-q35-zesty",
              "attr": {
                "@_maxCpus": "288"
              }
            },
            {
              "#text": "pc-0.13",
              "attr": {
                "@_maxCpus": "255"
              }
            },
            {
              "#text": "pc-q35-artful",
              "attr": {
                "@_maxCpus": "288"
              }
            },
            {
              "#text": "pc-0.14",
              "attr": {
                "@_maxCpus": "255"
              }
            },
            {
              "#text": "pc-q35-2.4",
              "attr": {
                "@_maxCpus": "255"
              }
            },
            {
              "#text": "pc-i440fx-trusty",
              "attr": {
                "@_maxCpus": "255"
              }
            },
            {
              "#text": "pc-q35-2.5",
              "attr": {
                "@_maxCpus": "255"
              }
            },
            {
              "#text": "pc-q35-2.6",
              "attr": {
                "@_maxCpus": "255"
              }
            },
            {
              "#text": "pc-i440fx-1.4",
              "attr": {
                "@_maxCpus": "255"
              }
            },
            {
              "#text": "pc-i440fx-2.10",
              "attr": {
                "@_maxCpus": "255"
              }
            },
            {
              "#text": "pc-0.11",
              "attr": {
                "@_maxCpus": "255"
              }
            },
            {
              "#text": "pc-0.12",
              "attr": {
                "@_maxCpus": "255"
              }
            },
            {
              "#text": "pc-q35-bionic",
              "attr": {
                "@_maxCpus": "288"
              }
            },
            {
              "#text": "pc-0.10",
              "attr": {
                "@_maxCpus": "255"
              }
            }
          ],
          "domain": [
            {
              "attr": {
                "@_type": "qemu"
              }
            },
            {
              "attr": {
                "@_type": "kvm"
              },
              "emulator": "/usr/bin/kvm-spice",
              "machine": [
                {
                  "#text": "pc-i440fx-bionic",
                  "attr": {
                    "@_maxCpus": "255"
                  }
                },
                {
                  "#text": "ubuntu",
                  "attr": {
                    "@_canonical": "pc-i440fx-bionic",
                    "@_maxCpus": "255"
                  }
                },
                {
                  "#text": "isapc",
                  "attr": {
                    "@_maxCpus": "1"
                  }
                },
                {
                  "#text": "pc-1.1",
                  "attr": {
                    "@_maxCpus": "255"
                  }
                },
                {
                  "#text": "pc-1.2",
                  "attr": {
                    "@_maxCpus": "255"
                  }
                },
                {
                  "#text": "pc-1.3",
                  "attr": {
                    "@_maxCpus": "255"
                  }
                },
                {
                  "#text": "pc-i440fx-zesty",
                  "attr": {
                    "@_maxCpus": "255"
                  }
                },
                {
                  "#text": "pc-i440fx-2.8",
                  "attr": {
                    "@_maxCpus": "255"
                  }
                },
                {
                  "#text": "pc-1.0",
                  "attr": {
                    "@_maxCpus": "255"
                  }
                },
                {
                  "#text": "pc-i440fx-2.9",
                  "attr": {
                    "@_maxCpus": "255"
                  }
                },
                {
                  "#text": "pc-i440fx-2.6",
                  "attr": {
                    "@_maxCpus": "255"
                  }
                },
                {
                  "#text": "pc-i440fx-2.7",
                  "attr": {
                    "@_maxCpus": "255"
                  }
                },
                {
                  "#text": "xenfv",
                  "attr": {
                    "@_maxCpus": "128"
                  }
                },
                {
                  "#text": "pc-i440fx-wily",
                  "attr": {
                    "@_maxCpus": "255"
                  }
                },
                {
                  "#text": "pc-i440fx-2.3",
                  "attr": {
                    "@_maxCpus": "255"
                  }
                },
                {
                  "#text": "pc-i440fx-2.4",
                  "attr": {
                    "@_maxCpus": "255"
                  }
                },
                {
                  "#text": "pc-i440fx-2.5",
                  "attr": {
                    "@_maxCpus": "255"
                  }
                },
                {
                  "#text": "pc-i440fx-yakkety",
                  "attr": {
                    "@_maxCpus": "255"
                  }
                },
                {
                  "#text": "pc-i440fx-2.1",
                  "attr": {
                    "@_maxCpus": "255"
                  }
                },
                {
                  "#text": "pc-i440fx-2.2",
                  "attr": {
                    "@_maxCpus": "255"
                  }
                },
                {
                  "#text": "pc-i440fx-2.0",
                  "attr": {
                    "@_maxCpus": "255"
                  }
                },
                {
                  "#text": "pc-q35-yakkety",
                  "attr": {
                    "@_maxCpus": "255"
                  }
                },
                {
                  "#text": "pc-i440fx-bionic-hpb",
                  "attr": {
                    "@_maxCpus": "255"
                  }
                },
                {
                  "#text": "pc-q35-2.11",
                  "attr": {
                    "@_maxCpus": "288"
                  }
                },
                {
                  "#text": "q35",
                  "attr": {
                    "@_canonical": "pc-q35-2.11",
                    "@_maxCpus": "288"
                  }
                },
                {
                  "#text": "pc-i440fx-xenial",
                  "attr": {
                    "@_maxCpus": "255"
                  }
                },
                {
                  "#text": "xenpv",
                  "attr": {
                    "@_maxCpus": "1"
                  }
                },
                {
                  "#text": "pc-q35-2.10",
                  "attr": {
                    "@_maxCpus": "288"
                  }
                },
                {
                  "#text": "pc-q35-bionic-hpb",
                  "attr": {
                    "@_maxCpus": "288"
                  }
                },
                {
                  "#text": "pc-q35-xenial",
                  "attr": {
                    "@_maxCpus": "255"
                  }
                },
                {
                  "#text": "pc-i440fx-artful",
                  "attr": {
                    "@_maxCpus": "255"
                  }
                },
                {
                  "#text": "pc-i440fx-1.7",
                  "attr": {
                    "@_maxCpus": "255"
                  }
                },
                {
                  "#text": "pc-q35-2.9",
                  "attr": {
                    "@_maxCpus": "288"
                  }
                },
                {
                  "#text": "pc-0.15",
                  "attr": {
                    "@_maxCpus": "255"
                  }
                },
                {
                  "#text": "pc-i440fx-1.5",
                  "attr": {
                    "@_maxCpus": "255"
                  }
                },
                {
                  "#text": "pc-q35-2.7",
                  "attr": {
                    "@_maxCpus": "255"
                  }
                },
                {
                  "#text": "pc-i440fx-1.6",
                  "attr": {
                    "@_maxCpus": "255"
                  }
                },
                {
                  "#text": "pc-i440fx-2.11",
                  "attr": {
                    "@_maxCpus": "255"
                  }
                },
                {
                  "#text": "pc",
                  "attr": {
                    "@_canonical": "pc-i440fx-2.11",
                    "@_maxCpus": "255"
                  }
                },
                {
                  "#text": "pc-q35-2.8",
                  "attr": {
                    "@_maxCpus": "288"
                  }
                },
                {
                  "#text": "pc-q35-zesty",
                  "attr": {
                    "@_maxCpus": "288"
                  }
                },
                {
                  "#text": "pc-0.13",
                  "attr": {
                    "@_maxCpus": "255"
                  }
                },
                {
                  "#text": "pc-q35-artful",
                  "attr": {
                    "@_maxCpus": "288"
                  }
                },
                {
                  "#text": "pc-0.14",
                  "attr": {
                    "@_maxCpus": "255"
                  }
                },
                {
                  "#text": "pc-q35-2.4",
                  "attr": {
                    "@_maxCpus": "255"
                  }
                },
                {
                  "#text": "pc-i440fx-trusty",
                  "attr": {
                    "@_maxCpus": "255"
                  }
                },
                {
                  "#text": "pc-q35-2.5",
                  "attr": {
                    "@_maxCpus": "255"
                  }
                },
                {
                  "#text": "pc-q35-2.6",
                  "attr": {
                    "@_maxCpus": "255"
                  }
                },
                {
                  "#text": "pc-i440fx-1.4",
                  "attr": {
                    "@_maxCpus": "255"
                  }
                },
                {
                  "#text": "pc-i440fx-2.10",
                  "attr": {
                    "@_maxCpus": "255"
                  }
                },
                {
                  "#text": "pc-0.11",
                  "attr": {
                    "@_maxCpus": "255"
                  }
                },
                {
                  "#text": "pc-0.12",
                  "attr": {
                    "@_maxCpus": "255"
                  }
                },
                {
                  "#text": "pc-q35-bionic",
                  "attr": {
                    "@_maxCpus": "288"
                  }
                },
                {
                  "#text": "pc-0.10",
                  "attr": {
                    "@_maxCpus": "255"
                  }
                }
              ]
            }
          ]
        },
        "features": {
          "cpuselection": {
            "attr": {
              "@_/": true
            }
          },
          "deviceboot": {
            "attr": {
              "@_/": true
            }
          },
          "disksnapshot": {
            "attr": {
              "@_default": "on",
              "@_toggle": "no"
            }
          },
          "acpi": {
            "attr": {
              "@_default": "on",
              "@_toggle": "yes"
            }
          },
          "apic": {
            "attr": {
              "@_default": "on",
              "@_toggle": "no"
            }
          },
          "pae": {
            "attr": {
              "@_/": true
            }
          },
          "nonpae": {
            "attr": {
              "@_/": true
            }
          }
        }
      },
      {
        "os_type": "hvm",
        "arch": {
          "attr": {
            "@_name": "x86_64"
          },
          "wordsize": 64,
          "emulator": "/usr/bin/qemu-system-x86_64",
          "machine": [
            {
              "#text": "pc-i440fx-bionic",
              "attr": {
                "@_maxCpus": "255"
              }
            },
            {
              "#text": "ubuntu",
              "attr": {
                "@_canonical": "pc-i440fx-bionic",
                "@_maxCpus": "255"
              }
            },
            {
              "#text": "isapc",
              "attr": {
                "@_maxCpus": "1"
              }
            },
            {
              "#text": "pc-1.1",
              "attr": {
                "@_maxCpus": "255"
              }
            },
            {
              "#text": "pc-1.2",
              "attr": {
                "@_maxCpus": "255"
              }
            },
            {
              "#text": "pc-1.3",
              "attr": {
                "@_maxCpus": "255"
              }
            },
            {
              "#text": "pc-i440fx-zesty",
              "attr": {
                "@_maxCpus": "255"
              }
            },
            {
              "#text": "pc-i440fx-2.8",
              "attr": {
                "@_maxCpus": "255"
              }
            },
            {
              "#text": "pc-1.0",
              "attr": {
                "@_maxCpus": "255"
              }
            },
            {
              "#text": "pc-i440fx-2.9",
              "attr": {
                "@_maxCpus": "255"
              }
            },
            {
              "#text": "pc-i440fx-2.6",
              "attr": {
                "@_maxCpus": "255"
              }
            },
            {
              "#text": "pc-i440fx-2.7",
              "attr": {
                "@_maxCpus": "255"
              }
            },
            {
              "#text": "xenfv",
              "attr": {
                "@_maxCpus": "128"
              }
            },
            {
              "#text": "pc-i440fx-wily",
              "attr": {
                "@_maxCpus": "255"
              }
            },
            {
              "#text": "pc-i440fx-2.3",
              "attr": {
                "@_maxCpus": "255"
              }
            },
            {
              "#text": "pc-i440fx-2.4",
              "attr": {
                "@_maxCpus": "255"
              }
            },
            {
              "#text": "pc-i440fx-2.5",
              "attr": {
                "@_maxCpus": "255"
              }
            },
            {
              "#text": "pc-i440fx-yakkety",
              "attr": {
                "@_maxCpus": "255"
              }
            },
            {
              "#text": "pc-i440fx-2.1",
              "attr": {
                "@_maxCpus": "255"
              }
            },
            {
              "#text": "pc-i440fx-2.2",
              "attr": {
                "@_maxCpus": "255"
              }
            },
            {
              "#text": "pc-i440fx-2.0",
              "attr": {
                "@_maxCpus": "255"
              }
            },
            {
              "#text": "pc-q35-yakkety",
              "attr": {
                "@_maxCpus": "255"
              }
            },
            {
              "#text": "pc-i440fx-bionic-hpb",
              "attr": {
                "@_maxCpus": "255"
              }
            },
            {
              "#text": "pc-q35-2.11",
              "attr": {
                "@_maxCpus": "288"
              }
            },
            {
              "#text": "q35",
              "attr": {
                "@_canonical": "pc-q35-2.11",
                "@_maxCpus": "288"
              }
            },
            {
              "#text": "pc-i440fx-xenial",
              "attr": {
                "@_maxCpus": "255"
              }
            },
            {
              "#text": "xenpv",
              "attr": {
                "@_maxCpus": "1"
              }
            },
            {
              "#text": "pc-q35-2.10",
              "attr": {
                "@_maxCpus": "288"
              }
            },
            {
              "#text": "pc-q35-bionic-hpb",
              "attr": {
                "@_maxCpus": "288"
              }
            },
            {
              "#text": "pc-q35-xenial",
              "attr": {
                "@_maxCpus": "255"
              }
            },
            {
              "#text": "pc-i440fx-artful",
              "attr": {
                "@_maxCpus": "255"
              }
            },
            {
              "#text": "pc-i440fx-1.7",
              "attr": {
                "@_maxCpus": "255"
              }
            },
            {
              "#text": "pc-q35-2.9",
              "attr": {
                "@_maxCpus": "288"
              }
            },
            {
              "#text": "pc-0.15",
              "attr": {
                "@_maxCpus": "255"
              }
            },
            {
              "#text": "pc-i440fx-1.5",
              "attr": {
                "@_maxCpus": "255"
              }
            },
            {
              "#text": "pc-q35-2.7",
              "attr": {
                "@_maxCpus": "255"
              }
            },
            {
              "#text": "pc-i440fx-1.6",
              "attr": {
                "@_maxCpus": "255"
              }
            },
            {
              "#text": "pc-i440fx-2.11",
              "attr": {
                "@_maxCpus": "255"
              }
            },
            {
              "#text": "pc",
              "attr": {
                "@_canonical": "pc-i440fx-2.11",
                "@_maxCpus": "255"
              }
            },
            {
              "#text": "pc-q35-2.8",
              "attr": {
                "@_maxCpus": "288"
              }
            },
            {
              "#text": "pc-q35-zesty",
              "attr": {
                "@_maxCpus": "288"
              }
            },
            {
              "#text": "pc-0.13",
              "attr": {
                "@_maxCpus": "255"
              }
            },
            {
              "#text": "pc-q35-artful",
              "attr": {
                "@_maxCpus": "288"
              }
            },
            {
              "#text": "pc-0.14",
              "attr": {
                "@_maxCpus": "255"
              }
            },
            {
              "#text": "pc-q35-2.4",
              "attr": {
                "@_maxCpus": "255"
              }
            },
            {
              "#text": "pc-i440fx-trusty",
              "attr": {
                "@_maxCpus": "255"
              }
            },
            {
              "#text": "pc-q35-2.5",
              "attr": {
                "@_maxCpus": "255"
              }
            },
            {
              "#text": "pc-q35-2.6",
              "attr": {
                "@_maxCpus": "255"
              }
            },
            {
              "#text": "pc-i440fx-1.4",
              "attr": {
                "@_maxCpus": "255"
              }
            },
            {
              "#text": "pc-i440fx-2.10",
              "attr": {
                "@_maxCpus": "255"
              }
            },
            {
              "#text": "pc-0.11",
              "attr": {
                "@_maxCpus": "255"
              }
            },
            {
              "#text": "pc-0.12",
              "attr": {
                "@_maxCpus": "255"
              }
            },
            {
              "#text": "pc-q35-bionic",
              "attr": {
                "@_maxCpus": "288"
              }
            },
            {
              "#text": "pc-0.10",
              "attr": {
                "@_maxCpus": "255"
              }
            }
          ],
          "domain": [
            {
              "attr": {
                "@_type": "qemu"
              }
            },
            {
              "attr": {
                "@_type": "kvm"
              },
              "emulator": "/usr/bin/kvm-spice",
              "machine": [
                {
                  "#text": "pc-i440fx-bionic",
                  "attr": {
                    "@_maxCpus": "255"
                  }
                },
                {
                  "#text": "ubuntu",
                  "attr": {
                    "@_canonical": "pc-i440fx-bionic",
                    "@_maxCpus": "255"
                  }
                },
                {
                  "#text": "isapc",
                  "attr": {
                    "@_maxCpus": "1"
                  }
                },
                {
                  "#text": "pc-1.1",
                  "attr": {
                    "@_maxCpus": "255"
                  }
                },
                {
                  "#text": "pc-1.2",
                  "attr": {
                    "@_maxCpus": "255"
                  }
                },
                {
                  "#text": "pc-1.3",
                  "attr": {
                    "@_maxCpus": "255"
                  }
                },
                {
                  "#text": "pc-i440fx-zesty",
                  "attr": {
                    "@_maxCpus": "255"
                  }
                },
                {
                  "#text": "pc-i440fx-2.8",
                  "attr": {
                    "@_maxCpus": "255"
                  }
                },
                {
                  "#text": "pc-1.0",
                  "attr": {
                    "@_maxCpus": "255"
                  }
                },
                {
                  "#text": "pc-i440fx-2.9",
                  "attr": {
                    "@_maxCpus": "255"
                  }
                },
                {
                  "#text": "pc-i440fx-2.6",
                  "attr": {
                    "@_maxCpus": "255"
                  }
                },
                {
                  "#text": "pc-i440fx-2.7",
                  "attr": {
                    "@_maxCpus": "255"
                  }
                },
                {
                  "#text": "xenfv",
                  "attr": {
                    "@_maxCpus": "128"
                  }
                },
                {
                  "#text": "pc-i440fx-wily",
                  "attr": {
                    "@_maxCpus": "255"
                  }
                },
                {
                  "#text": "pc-i440fx-2.3",
                  "attr": {
                    "@_maxCpus": "255"
                  }
                },
                {
                  "#text": "pc-i440fx-2.4",
                  "attr": {
                    "@_maxCpus": "255"
                  }
                },
                {
                  "#text": "pc-i440fx-2.5",
                  "attr": {
                    "@_maxCpus": "255"
                  }
                },
                {
                  "#text": "pc-i440fx-yakkety",
                  "attr": {
                    "@_maxCpus": "255"
                  }
                },
                {
                  "#text": "pc-i440fx-2.1",
                  "attr": {
                    "@_maxCpus": "255"
                  }
                },
                {
                  "#text": "pc-i440fx-2.2",
                  "attr": {
                    "@_maxCpus": "255"
                  }
                },
                {
                  "#text": "pc-i440fx-2.0",
                  "attr": {
                    "@_maxCpus": "255"
                  }
                },
                {
                  "#text": "pc-q35-yakkety",
                  "attr": {
                    "@_maxCpus": "255"
                  }
                },
                {
                  "#text": "pc-i440fx-bionic-hpb",
                  "attr": {
                    "@_maxCpus": "255"
                  }
                },
                {
                  "#text": "pc-q35-2.11",
                  "attr": {
                    "@_maxCpus": "288"
                  }
                },
                {
                  "#text": "q35",
                  "attr": {
                    "@_canonical": "pc-q35-2.11",
                    "@_maxCpus": "288"
                  }
                },
                {
                  "#text": "pc-i440fx-xenial",
                  "attr": {
                    "@_maxCpus": "255"
                  }
                },
                {
                  "#text": "xenpv",
                  "attr": {
                    "@_maxCpus": "1"
                  }
                },
                {
                  "#text": "pc-q35-2.10",
                  "attr": {
                    "@_maxCpus": "288"
                  }
                },
                {
                  "#text": "pc-q35-bionic-hpb",
                  "attr": {
                    "@_maxCpus": "288"
                  }
                },
                {
                  "#text": "pc-q35-xenial",
                  "attr": {
                    "@_maxCpus": "255"
                  }
                },
                {
                  "#text": "pc-i440fx-artful",
                  "attr": {
                    "@_maxCpus": "255"
                  }
                },
                {
                  "#text": "pc-i440fx-1.7",
                  "attr": {
                    "@_maxCpus": "255"
                  }
                },
                {
                  "#text": "pc-q35-2.9",
                  "attr": {
                    "@_maxCpus": "288"
                  }
                },
                {
                  "#text": "pc-0.15",
                  "attr": {
                    "@_maxCpus": "255"
                  }
                },
                {
                  "#text": "pc-i440fx-1.5",
                  "attr": {
                    "@_maxCpus": "255"
                  }
                },
                {
                  "#text": "pc-q35-2.7",
                  "attr": {
                    "@_maxCpus": "255"
                  }
                },
                {
                  "#text": "pc-i440fx-1.6",
                  "attr": {
                    "@_maxCpus": "255"
                  }
                },
                {
                  "#text": "pc-i440fx-2.11",
                  "attr": {
                    "@_maxCpus": "255"
                  }
                },
                {
                  "#text": "pc",
                  "attr": {
                    "@_canonical": "pc-i440fx-2.11",
                    "@_maxCpus": "255"
                  }
                },
                {
                  "#text": "pc-q35-2.8",
                  "attr": {
                    "@_maxCpus": "288"
                  }
                },
                {
                  "#text": "pc-q35-zesty",
                  "attr": {
                    "@_maxCpus": "288"
                  }
                },
                {
                  "#text": "pc-0.13",
                  "attr": {
                    "@_maxCpus": "255"
                  }
                },
                {
                  "#text": "pc-q35-artful",
                  "attr": {
                    "@_maxCpus": "288"
                  }
                },
                {
                  "#text": "pc-0.14",
                  "attr": {
                    "@_maxCpus": "255"
                  }
                },
                {
                  "#text": "pc-q35-2.4",
                  "attr": {
                    "@_maxCpus": "255"
                  }
                },
                {
                  "#text": "pc-i440fx-trusty",
                  "attr": {
                    "@_maxCpus": "255"
                  }
                },
                {
                  "#text": "pc-q35-2.5",
                  "attr": {
                    "@_maxCpus": "255"
                  }
                },
                {
                  "#text": "pc-q35-2.6",
                  "attr": {
                    "@_maxCpus": "255"
                  }
                },
                {
                  "#text": "pc-i440fx-1.4",
                  "attr": {
                    "@_maxCpus": "255"
                  }
                },
                {
                  "#text": "pc-i440fx-2.10",
                  "attr": {
                    "@_maxCpus": "255"
                  }
                },
                {
                  "#text": "pc-0.11",
                  "attr": {
                    "@_maxCpus": "255"
                  }
                },
                {
                  "#text": "pc-0.12",
                  "attr": {
                    "@_maxCpus": "255"
                  }
                },
                {
                  "#text": "pc-q35-bionic",
                  "attr": {
                    "@_maxCpus": "288"
                  }
                },
                {
                  "#text": "pc-0.10",
                  "attr": {
                    "@_maxCpus": "255"
                  }
                }
              ]
            }
          ]
        },
        "features": {
          "cpuselection": {
            "attr": {
              "@_/": true
            }
          },
          "deviceboot": {
            "attr": {
              "@_/": true
            }
          },
          "disksnapshot": {
            "attr": {
              "@_default": "on",
              "@_toggle": "no"
            }
          },
          "acpi": {
            "attr": {
              "@_default": "on",
              "@_toggle": "yes"
            }
          },
          "apic": {
            "attr": {
              "@_default": "on",
              "@_toggle": "no"
            }
          }
        }
      }
    ]
  }
}
